%YAML 1.1
%TAG !u! tag:unity3d.com,2011:
--- !u!114 &11400000
MonoBehaviour:
  m_ObjectHideFlags: 0
  m_PrefabParentObject: {fileID: 0}
  m_PrefabInternal: {fileID: 0}
  m_GameObject: {fileID: 0}
  m_Enabled: 1
  m_EditorHideFlags: 0
  m_Script: {fileID: 11500000, guid: 1dacee28a14204d79b4a74897a33f416, type: 3}
  m_Name: AudioLibrary
  m_EditorClassIdentifier: 
  _keys:
  - main_menu
  - draw_Battle
  - Winning
  - Engines
  - Metal_Scrape
  - Input_Tap
  - Input_Tap2
  - Input_Tap3
  _Values:
  - {fileID: 8300000, guid: 0a4b71cdf87ae8a4dbe92bc0006a67a9, type: 3}
  - {fileID: 8300000, guid: a269739e5cb2fad42a90d6fcefcbecfb, type: 3}
  - {fileID: 8300000, guid: 65a9e9aa651503649bda61085da0cc0b, type: 3}
  - {fileID: 8300000, guid: 870a34c49999d0446b077d527f054e24, type: 3}
  - {fileID: 8300000, guid: d0506cd12b2c98940a74b5469fee3638, type: 3}
  - {fileID: 8300000, guid: 8f25cef75c758f74b8b6858781069b40, type: 3}
  - {fileID: 8300000, guid: 4d94f07fc2cf2174c8123336207b80b5, type: 3}
  - {fileID: 8300000, guid: a82bb042a0e442443acc79f257b33ec1, type: 3}
